PING 134.85.239.16 (134.85.239.16) 56(84) bytes of data. --- 134.85.239.16 ping statistics --- 3 packets transmitted, 0 received, 100% packet loss, time 2053ms
PING 72.18.61.113 (72.18.61.113) 56(84) bytes of data. --- 72.18.61.113 ping statistics --- 3 packets transmitted, 0 received, 100% packet loss, time 2053ms
PING 108.125.11.32 (108.125.11.32) 56(84) bytes of data. --- 108.125.11.32 ping statistics --- 3 packets transmitted, 0 received, 100% packet loss, time 2026ms
PING 102.44.234.54 (102.44.234.54) 56(84) bytes of data. --- 102.44.234.54 ping statistics --- 3 packets transmitted, 0 received, 100% packet loss, time 2033ms
PING 184.39.46.127 (184.39.46.127) 56(84) bytes of data. --- 184.39.46.127 ping statistics --- 3 packets transmitted, 0 received, 100% packet loss, time 2039ms
PING 183.227.17.115 (183.227.17.115) 56(84) bytes of data. --- 183.227.17.115 ping statistics --- 3 packets transmitted, 0 received, 100% packet loss, time 2044ms
PING 207.69.10.192 (207.69.10.192) 56(84) bytes of data. --- 207.69.10.192 ping statistics --- 3 packets transmitted, 0 received, 100% packet loss, time 2043ms
PING 222.209.82.19 (222.209.82.19) 56(84) bytes of data. --- 222.209.82.19 ping statistics --- 3 packets transmitted, 0 received, 100% packet loss, time 2050ms
PING 148.121.75.166 (148.121.75.166) 56(84) bytes of data. --- 148.121.75.166 ping statistics --- 3 packets transmitted, 0 received, 100% packet loss, time 2053ms
PING 44.214.70.68 (44.214.70.68) 56(84) bytes of data. --- 44.214.70.68 ping statistics --- 3 packets transmitted, 0 received, 100% packet loss, time 2057ms
PING 114.230.125.40 (114.230.125.40) 56(84) bytes of data. --- 114.230.125.40 ping statistics --- 3 packets transmitted, 0 received, 100% packet loss, time 2056ms
PING 236.8.218.82 (236.8.218.82) 56(84) bytes of data. --- 236.8.218.82 ping statistics --- 3 packets transmitted, 0 received, 100% packet loss, time 2028ms
PING 24.180.85.68 (24.180.85.68) 56(84) bytes of data. 64 bytes from 24.180.85.68: icmp_seq=1 ttl=48 time=148 ms --- 24.180.85.68 ping statistics --- 1 packets transmitted, 1 received, 0% packet loss, time 0ms rtt min/avg/max/mdev = 148.307/148.307/148.307/0.000 ms
PING 214.245.116.123 (214.245.116.123) 56(84) bytes of data. --- 214.245.116.123 ping statistics --- 3 packets transmitted, 0 received, 100% packet loss, time 2043ms
PING 152.163.64.246 (152.163.64.246) 56(84) bytes of data. --- 152.163.64.246 ping statistics --- 3 packets transmitted, 0 received, 100% packet loss, time 2043ms
PING 161.70.104.125 (161.70.104.125) 56(84) bytes of data. --- 161.70.104.125 ping statistics --- 3 packets transmitted, 0 received, 100% packet loss, time 2046ms
PING 223.223.204.211 (223.223.204.211) 56(84) bytes of data. --- 223.223.204.211 ping statistics --- 3 packets transmitted, 0 received, 100% packet loss, time 2050ms
PING 4.103.154.171 (4.103.154.171) 56(84) bytes of data. --- 4.103.154.171 ping statistics --- 3 packets transmitted, 0 received, 100% packet loss, time 2055ms
PING 239.175.236.251 (239.175.236.251) 56(84) bytes of data. --- 239.175.236.251 ping statistics --- 3 packets transmitted, 0 received, 100% packet loss, time 2027ms
PING 112.249.27.17 (112.249.27.17) 56(84) bytes of data. 64 bytes from 112.249.27.17: icmp_seq=1 ttl=48 time=165 ms --- 112.249.27.17 ping statistics --- 1 packets transmitted, 1 received, 0% packet loss, time 0ms rtt min/avg/max/mdev = 165.443/165.443/165.443/0.000 ms
PING 125.212.7.119 (125.212.7.119) 56(84) bytes of data. --- 125.212.7.119 ping statistics --- 3 packets transmitted, 0 received, 100% packet loss, time 2053ms
PING 184.180.42.82 (184.180.42.82) 56(84) bytes of data. 64 bytes from 184.180.42.82: icmp_seq=1 ttl=240 time=123 ms --- 184.180.42.82 ping statistics --- 1 packets transmitted, 1 received, 0% packet loss, time 0ms rtt min/avg/max/mdev = 123.088/123.088/123.088/0.000 ms
PING 5.77.6.93 (5.77.6.93) 56(84) bytes of data. --- 5.77.6.93 ping statistics --- 3 packets transmitted, 0 received, 100% packet loss, time 2028ms
